{
    // WEAPON DEFINITIONS
    // https://docs.google.com/document/d/1aQi5dHvIpqVZ8ZXgwnjBaPkncg0SzycvWcdycNkxj6c/edit
    // - Max speed expressed in pixels/sec
    // - Rotation speed expressed in degrees/sec
    // - Thrust acceleration expressed in pixels/sec²
    // - Max shield energy expressed in energy units
    "weapon": [
        // WEAPON 1
        {
            "id": 1,
            "name": "Súng thường",
            "ability": "Không có",
            "secret_status": "Không có",
            "bullet_status": [1],
            "upgrade_piece": [0],
            "bullet_speed": 10000,
            "bullet_rate": 3
        },
        {
            "id": 2,
            "name": "Súng bong bóng",
            "ability": "Bắn ra 1 cái bong bóng có khả năng nảy, càng nâng cấp số lần nảy càng nhiều, số lần nảy từ 2,4,6,8,10 qua 4 lần nâng cấp, khi bắt được cá thì đạn sẽ không tiếp tục nảy",
            "secret_status": "Tăng 20% bắt dính cho cá dưới hoặc bằng x20 (tỷ lệ thưởng ), kích thước đạn to x 3 lần bình thường",
            "bullet_status": [1, 2, 3, 4, 5],
            "upgrade_piece": [10, 30, 50, 100, 200],
            "bullet_speed": 10000,
            "bullet_rate": 3
        }
    ],
    "bullet": [],
    "fish": []
}