{
    "wall_left": {
        "x":        -2.5,
        "y":        540.0,
        "width":    5.0,
        "height":   1010.0
    },
    "wall_top": {
        "x":        960.0,
        "y":        1082.5,
        "width":    1920.0,
        "height":   5.0
    },
    "wall_right": {
        "x":        1922.5,
        "y":        540.0,
        "width":    5.0,
        "height":   1010.0
    },
    "wall_bottom": {
        "x":        960.0,
        "y":        -2.5,
        "width":    1920.0,
        "height":   5.0
    }
}